# Blender MTL File: 'SeaAngler.blend'
# Material Count: 9

newmtl Blue
Ns 1000.000000
Ka 0.019482 0.019482 0.019482
Kd 0.062764 0.079847 0.800000
Ks 0.386484 0.780355 0.700265
Ni 1.000000
d 1.000000
illum 2

newmtl Fabric
Ns 0.000000
Ka 0.031696 0.031696 0.031696
Kd 0.533524 0.541017 1.000000
Ks 0.055511 0.055511 0.055511
Ni 1.000000
d 1.000000
illum 2
map_Kd Fabric1.jpg

newmtl InvDeck
Ns 96.078431
Ka 0.060056 0.060056 0.060056
Kd 0.330827 0.330827 0.330827
Ks 0.000000 0.000000 0.000000
Ni 1.000000
d 0.100000
illum 0

newmtl Material
Ns 94.117647
Ka 0.025753 0.025753 0.025753
Kd 0.108000 0.225000 0.180891
Ks 0.489583 0.489583 0.489583
Ni 1.000000
d 1.000000
illum 2

newmtl Metal
Ns 633.333333
Ka 0.135841 0.135841 0.135841
Kd 0.173940 0.176668 0.183489
Ks 0.879956 0.907975 0.781582
Ni 1.000000
d 1.000000
illum 2

newmtl WhiteBase
Ns 19.607843
Ka 0.031696 0.031696 0.031696
Kd 0.910557 1.000000 0.960399
Ks 0.251000 0.251000 0.251000
Ni 1.000000
d 1.000000
illum 2

newmtl Windows
Ns 427.450980
Ka 0.184744 0.184744 0.184744
Kd 0.166368 0.218014 0.259048
Ks 0.928198 0.973910 1.000000
Ni 1.000000
d 0.347704
illum 2

newmtl Wood
Ns 815.686275
Ka 0.000000 0.000000 0.000000
Kd 0.457610 0.399730 0.325615
Ks 0.600736 0.600736 0.600736
Ni 1.000000
d 1.000000
illum 2
map_Kd wood.jpg

newmtl Wood_woodhighquality1.jpg
Ns 815.686275
Ka 0.000000 0.000000 0.000000
Kd 0.457610 0.399730 0.325615
Ks 0.600736 0.600736 0.600736
Ni 1.000000
d 1.000000
illum 2
map_Kd wood.jpg
